<?xml version="1.0" encoding="UTF-8"?>
<svg width="274px" height="205px" viewBox="0 0 274 205" version="1.1" xmlns="http://www.w3.org/2000/svg" xmlns:xlink="http://www.w3.org/1999/xlink">
    <!-- Generator: Sketch 50.2 (55047) - http://www.bohemiancoding.com/sketch -->
    <title>agrobionsa-logo-vertical</title>
    <desc>Created with Sketch.</desc>
    <defs>
        <polygon id="path-1" points="0.0563 0.663 50.1263 0.663 50.1263 50.4479 0.0563 50.4479"></polygon>
        <polygon id="path-3" points="0.1266 0.663 50.1956 0.663 50.1956 50.4479 0.1266 50.4479"></polygon>
        <polygon id="path-5" points="0.0747 0.4781 35.8497 0.4781 35.8497 40 0.0747 40"></polygon>
    </defs>
    <g id="Symbols" stroke="none" stroke-width="1" fill="none" fill-rule="evenodd">
        <g id="Footer" transform="translate(-410.000000, -84.000000)">
            <g id="Group-30">
                <g transform="translate(410.000000, 64.000000)">
                    <g id="agrobionsa-logo-vertical" transform="translate(0.000000, 19.000000)">
                        <g id="Group-3" transform="translate(73.000000, 0.337000)">
                            <mask id="mask-2" fill="white">
                                <use xlink:href="#path-1"></use>
                            </mask>
                            <g id="Clip-2"></g>
                            <path d="M25.0913,50.4479 C25.0913,36.7009 36.3003,25.5549 50.1263,25.5549 C50.1263,11.8079 38.9173,0.6629 25.0913,0.6629 C11.2653,0.6629 0.0563,11.8079 0.0563,25.5549 C13.8833,25.5549 25.0913,36.7009 25.0913,50.4479" id="Fill-1" fill="#009A37" mask="url(#mask-2)"></path>
                        </g>
                        <path d="M98.0913,50.7849 C84.2653,50.7849 73.0563,39.6399 73.0563,25.8919 C59.2303,25.8919 48.0223,37.0379 48.0223,50.7849 C48.0223,64.5329 59.2303,75.6779 73.0563,75.6779 C73.0563,61.9309 84.2653,50.7849 98.0913,50.7849" id="Fill-4" fill="#009A37"></path>
                        <path d="M98.0913,50.7849 C111.9173,50.7849 123.1263,61.9309 123.1263,75.6779 C123.1263,61.9309 134.3343,50.7849 148.1613,50.7849 C134.3343,50.7849 123.1263,39.6399 123.1263,25.8919 C123.1263,39.6399 111.9173,50.7849 98.0913,50.7849" id="Fill-6" fill="#009A37"></path>
                        <path d="M148.1616,50.7849 C161.9876,50.7849 173.1956,61.9309 173.1956,75.6779 C187.0226,75.6779 198.2306,64.5329 198.2306,50.7849 C198.2306,37.0379 187.0226,25.8919 173.1956,25.8919 C173.1956,39.6399 161.9876,50.7849 148.1616,50.7849" id="Fill-8" fill="#009A37"></path>
                        <path d="M98.0913,100.5701 C84.2653,100.5701 73.0563,89.4251 73.0563,75.6771 C59.2303,75.6771 48.0223,86.8231 48.0223,100.5701 C48.0223,114.3181 59.2303,125.4631 73.0563,125.4631 C73.0563,111.7161 84.2653,100.5701 98.0913,100.5701" id="Fill-10" fill="#009A37"></path>
                        <path d="M148.1616,100.5701 C134.3346,100.5701 123.1266,89.4251 123.1266,75.6771 C123.1266,89.4251 111.9176,100.5701 98.0916,100.5701 C111.9176,100.5701 123.1266,111.7161 123.1266,125.4631 C123.1266,111.7161 134.3346,100.5701 148.1616,100.5701" id="Fill-12" fill="#009A37"></path>
                        <path d="M173.1958,75.6775 C173.1958,89.4255 161.9878,100.5705 148.1618,100.5705 C161.9878,100.5705 173.1958,111.7155 173.1958,125.4625 C187.0228,125.4625 198.2308,114.3185 198.2308,100.5705 C198.2308,86.8235 187.0228,75.6775 173.1958,75.6775" id="Fill-14" fill="#009A37"></path>
                        <g id="Group-18" transform="translate(123.000000, 0.337000)">
                            <mask id="mask-4" fill="white">
                                <use xlink:href="#path-3"></use>
                            </mask>
                            <g id="Clip-17"></g>
                            <path d="M25.1616,50.4479 C25.1616,36.7009 36.3696,25.5549 50.1956,25.5549 C50.1956,11.8079 38.9876,0.6629 25.1616,0.6629 C11.3346,0.6629 0.1266,11.8079 0.1266,25.5549 C13.9526,25.5549 25.1616,36.7009 25.1616,50.4479" id="Fill-16" fill="#009A37" mask="url(#mask-4)"></path>
                        </g>
                        <path d="M98.0913,100.5701 C98.0913,86.8231 109.3003,75.6771 123.1263,75.6771 C109.3003,75.6771 98.0913,64.5331 98.0913,50.7851 C98.0913,64.5331 86.8833,75.6771 73.0563,75.6771 C86.8833,75.6771 98.0913,86.8231 98.0913,100.5701" id="Fill-19" fill="#009A37"></path>
                        <path d="M148.1616,50.7849 C148.1616,64.5329 136.9526,75.6779 123.1266,75.6779 C136.9526,75.6779 148.1616,86.8229 148.1616,100.5699 C148.1616,86.8229 159.3696,75.6779 173.1956,75.6779 C159.3696,75.6779 148.1616,64.5329 148.1616,50.7849" id="Fill-21" fill="#009A37"></path>
                        <path d="M98.0913,100.5701 C98.0913,114.3181 86.8833,125.4631 73.0563,125.4631 C73.0563,139.2111 84.2653,150.3561 98.0913,150.3561 C111.9173,150.3561 123.1263,139.2111 123.1263,125.4631 C109.3003,125.4631 98.0913,114.3181 98.0913,100.5701" id="Fill-23" fill="#009A37"></path>
                        <path d="M148.1616,100.5701 C148.1616,114.3181 136.9526,125.4631 123.1266,125.4631 C123.1266,139.2111 134.3346,150.3561 148.1616,150.3561 C161.9876,150.3561 173.1956,139.2111 173.1956,125.4631 C159.3696,125.4631 148.1616,114.3181 148.1616,100.5701" id="Fill-25" fill="#009A37"></path>
                        <path d="M92.3608,188.2722 C88.7118,188.2722 85.7538,184.5342 85.7538,179.9212 C85.7538,175.3092 88.7118,171.5712 92.3608,171.5712 C96.0088,171.5712 98.9668,175.3092 98.9668,179.9212 C98.9668,184.5342 96.0088,188.2722 92.3608,188.2722 M92.3608,165.4722 C84.6348,165.4722 78.3738,171.9412 78.3738,179.9212 C78.3738,187.9022 84.6348,194.3712 92.3608,194.3712 C100.0858,194.3712 106.3478,187.9022 106.3478,179.9212 C106.3478,171.9412 100.0858,165.4722 92.3608,165.4722" id="Fill-27" fill="#009B36"></path>
                        <polygon id="Fill-29" fill="#009B36" points="70.1548 175.3328 70.2128 175.1468 70.1438 173.7268"></polygon>
                        <path d="M70.9399,193.2996 L70.9399,176.3326 C70.9399,174.1556 73.3479,171.8626 75.3599,171.8626 C77.0769,171.8626 78.7929,173.0976 78.7929,173.0976 L81.1589,167.2136 C81.1589,167.2136 79.1469,165.8156 76.6029,165.8156 C73.5859,165.8156 71.5169,168.0556 70.1239,170.1556 L70.0939,166.2726 L63.7049,166.2726 L63.7049,193.2996 L70.6859,193.2996 L70.9399,193.2996 Z" id="Fill-31" fill="#009B36"></path>
                        <path d="M13.3706,178.6668 L18.3816,165.0968 L18.5786,165.0968 L18.7756,165.0968 L23.7866,178.6668 L13.3706,178.6668 Z M36.8426,193.2998 L36.4286,192.5928 L22.4046,155.9188 L18.5786,155.9188 L14.7526,155.9188 L0.0006,193.2998 L7.9686,193.2998 L11.0826,184.8628 L26.0746,184.8628 L29.1896,193.2998 L36.8426,193.2998 Z" id="Fill-33" fill="#009B36"></path>
                        <g id="Group-37" transform="translate(26.000000, 165.337000)">
                            <mask id="mask-6" fill="white">
                                <use xlink:href="#path-5"></use>
                            </mask>
                            <g id="Clip-36"></g>
                            <path d="M22.7397,22.3991 C19.3667,22.3991 16.6327,18.7801 16.6327,14.3161 C16.6327,9.8521 19.3667,6.2341 22.7397,6.2341 C26.1127,6.2341 28.8467,9.8521 28.8467,14.3161 C28.8467,18.7801 26.1127,22.3991 22.7397,22.3991 M0.0747,19.5261 L3.2817,28.2141 C5.8957,35.2941 12.6757,40.0001 20.2607,40.0001 L21.7287,40.0001 C29.6967,40.0001 35.8497,33.8041 35.8497,25.8431 L35.8497,0.9351 L28.8467,0.9351 L28.8467,4.1221 C26.7937,1.8611 24.0507,0.4781 21.0357,0.4781 C14.6727,0.4781 9.5137,6.6301 9.5137,14.2201 C9.5137,21.8101 14.1817,27.9621 20.5457,27.9621 C23.6847,27.9621 26.6477,26.4631 28.8467,24.0351 L28.8467,25.2521 C28.8467,29.5411 25.3497,33.0181 21.0357,33.0181 C21.0357,33.0181 13.8597,33.7631 10.8427,27.9621" id="Fill-35" fill="#009B36" mask="url(#mask-6)"></path>
                        </g>
                        <path d="M211.4272,174.9314 C211.4272,173.5244 213.1232,171.1054 216.4162,171.1054 C218.4882,171.1054 220.2232,172.4194 221.4732,174.2154 L224.2562,172.2094 C224.2882,172.0904 221.9792,167.8404 216.4572,167.8404 C211.2692,167.8404 207.5412,171.5564 207.5412,175.2434 C207.5412,180.1904 211.5322,181.2214 214.8192,182.9344 C216.8242,183.9804 219.0942,184.8394 219.0942,187.5194 C219.0942,190.6184 216.1092,192.5634 213.0092,192.5634 C210.7022,192.5634 208.5712,190.9894 206.6952,188.6634 C205.6122,189.3904 204.8032,189.8754 203.7202,190.6034 C206.0452,193.9394 209.0602,196.1274 213.7152,196.1274 C214.5682,196.1274 223.0402,195.0104 223.0402,186.9804 C223.0402,183.1004 219.6392,181.2024 216.8702,179.7964 C214.0192,178.3504 211.4272,177.6414 211.4272,174.9314" id="Fill-38" fill="#00339B"></path>
                        <path d="M172.1079,179.7283 C172.0519,178.5003 171.8079,177.3583 171.3769,176.3033 C170.9439,175.2493 170.3369,174.3363 169.5519,173.5683 C168.7689,172.8003 167.8299,172.1963 166.7349,171.7543 C165.6389,171.3133 164.4199,171.0923 163.0769,171.0923 C161.3869,171.0923 159.8479,171.4483 158.4609,172.1573 C157.0729,172.8683 155.8879,173.8273 154.9059,175.0373 C153.9239,176.2463 153.1729,177.6463 152.6509,179.2393 C152.1289,180.8323 151.9089,182.5103 151.9889,184.2763 C152.0449,185.5043 152.2889,186.6473 152.7199,187.7033 C153.1529,188.7563 153.7589,189.6683 154.5449,190.4363 C155.3279,191.2053 156.2569,191.8083 157.3339,192.2493 C158.4099,192.6913 159.6189,192.9123 160.9629,192.9123 C162.6909,192.9123 164.2579,192.5583 165.6649,191.8463 C167.0719,191.1373 168.2659,190.1873 169.2489,188.9983 C170.2309,187.8073 170.9729,186.4163 171.4769,184.8233 C171.9799,183.2313 172.1909,181.5323 172.1079,179.7283 M160.8449,196.1273 C159.0359,196.1273 157.3479,195.8393 155.7829,195.2663 C154.2149,194.6923 152.8609,193.8983 151.7169,192.8833 C150.5749,191.8693 149.6609,190.6443 148.9799,189.2073 C148.2979,187.7733 147.9189,186.1943 147.8389,184.4713 C147.7369,182.2133 148.0339,180.0793 148.7309,178.0693 C149.4279,176.0593 150.4559,174.2993 151.8109,172.7863 C153.1659,171.2743 154.8049,170.0793 156.7289,169.1983 C158.6519,168.3173 160.7879,167.8763 163.1359,167.8763 C164.9839,167.8763 166.6799,168.1553 168.2269,168.7093 C169.7729,169.2653 171.1189,170.0593 172.2629,171.0923 C173.4079,172.1263 174.3189,173.3513 175.0009,174.7673 C175.6799,176.1833 176.0609,177.7533 176.1389,179.4753 C176.2439,181.7733 175.9479,183.9363 175.2519,185.9643 C174.5549,187.9943 173.5289,189.7533 172.1719,191.2473 C170.8159,192.7393 169.1759,193.9263 167.2539,194.8063 C165.3299,195.6873 163.1929,196.1273 160.8449,196.1273" id="Fill-40" fill="#00339B"></path>
                        <path d="M148.2944,162.3943 C148.3294,163.1613 148.0994,163.8113 147.6044,164.3463 C147.1084,164.8833 146.4764,165.1513 145.7064,165.1513 C144.9754,165.1513 144.3384,164.9213 143.7984,164.4613 C143.2574,164.0023 142.9694,163.3713 142.9324,162.5663 C142.8954,161.7633 143.1444,161.0933 143.6774,160.5573 C144.2104,160.0213 144.8444,159.7533 145.5754,159.7533 C146.3064,159.7533 146.9334,159.9933 147.4564,160.4713 C147.9784,160.9503 148.2584,161.5903 148.2944,162.3943 Z M143.2004,195.5233 L139.3314,195.5233 L142.8984,168.6503 L146.7674,168.6503 L143.2004,195.5233 Z" id="Fill-42" fill="#00339B"></path>
                        <path d="M133.7641,179.7283 C133.7101,178.5383 133.4761,177.4153 133.0621,176.3613 C132.6481,175.3053 132.0571,174.3833 131.2901,173.5973 C130.5221,172.8103 129.6091,172.1963 128.5491,171.7543 C127.4901,171.3133 126.2671,171.0923 124.8811,171.0923 C123.1871,171.0923 121.6241,171.4373 120.1931,172.1283 C118.7611,172.8193 117.5341,173.7703 116.5121,174.9793 C115.4891,176.1883 114.7051,177.5883 114.1621,179.1813 C113.6191,180.7753 113.3881,182.4543 113.4691,184.2183 C113.5271,185.4863 113.7821,186.6473 114.2351,187.7033 C114.6871,188.7563 115.3151,189.6783 116.1211,190.4653 C116.9271,191.2523 117.8691,191.8573 118.9481,192.2783 C120.0251,192.7013 121.2381,192.9123 122.5851,192.9123 C124.3561,192.9123 125.9491,192.5663 127.3611,191.8753 C128.7731,191.1853 129.9711,190.2453 130.9561,189.0553 C131.9421,187.8653 132.6761,186.4733 133.1621,184.8803 C133.6471,183.2883 133.8481,181.5713 133.7641,179.7283 Z M112.9081,190.9023 L112.3061,195.4383 L108.4371,195.4383 L113.0771,155.9183 L116.9421,155.9183 L115.2631,172.9303 L115.3791,172.9303 C115.7711,172.2413 116.2991,171.5903 116.9641,170.9773 C117.6291,170.3653 118.3841,169.8303 119.2301,169.3703 C120.0751,168.9113 120.9921,168.5473 121.9811,168.2793 C122.9691,168.0113 124.0021,167.8763 125.0801,167.8763 C126.9281,167.8763 128.6061,168.1553 130.1141,168.7093 C131.6211,169.2653 132.9381,170.0593 134.0631,171.0923 C135.1881,172.1263 136.0721,173.3513 136.7141,174.7673 C137.3561,176.1833 137.7161,177.7533 137.7951,179.4753 C137.9001,181.7733 137.5941,183.9363 136.8781,185.9643 C136.1621,187.9943 135.1361,189.7533 133.7991,191.2473 C132.4611,192.7393 130.8411,193.9263 128.9381,194.8063 C127.0341,195.6873 124.9461,196.1273 122.6751,196.1273 C121.7121,196.1273 120.7541,196.0123 119.8001,195.7833 C118.8461,195.5533 117.9361,195.2183 117.0701,194.7783 C116.2021,194.3383 115.4161,193.7923 114.7131,193.1413 C114.0101,192.4913 113.4471,191.7453 113.0231,190.9023 L112.9081,190.9023 Z" id="Fill-44" fill="#00339B"></path>
                        <path d="M243.1382,188.4929 C241.5342,191.0539 238.8242,192.7219 235.8012,192.9849 C234.2472,193.1199 232.5002,193.0149 231.1092,192.2549 C229.8282,191.5559 229.1572,190.3099 229.0542,188.8889 C228.9562,187.5219 229.3412,186.2139 230.3552,185.2579 C231.4122,184.2589 232.7642,183.6279 234.1442,183.2019 C237.3152,182.2219 240.7442,182.0609 244.0442,182.0609 L244.9682,182.0609 C244.6632,184.3189 244.3812,186.5069 243.1382,188.4929 M242.8792,191.2479 C242.7582,192.3139 242.7052,194.2519 242.7072,195.4269 C242.9932,195.4189 243.2702,195.4059 243.3272,195.4059 L246.7312,195.4059 C246.7312,189.7789 249.2512,180.0029 249.2512,176.0219 C249.2512,169.7649 244.0042,168.1299 240.7992,168.1299 C229.4922,168.1299 227.9152,176.0409 227.9152,176.0409 L232.2142,176.3149 C232.2142,176.3149 233.2412,171.3589 240.1802,171.3589 C246.9672,171.3589 245.2712,176.7469 244.9552,179.1329 C240.9292,179.1329 237.1552,179.2959 233.2472,180.3369 C230.4812,181.0739 227.4282,182.3799 225.9242,184.9649 C224.4552,187.4899 224.7002,191.0859 226.5872,193.3189 C228.4012,195.4649 231.1852,196.1279 233.9102,196.1279 C238.4472,196.1279 243.0662,192.8839 243.6542,192.3179" id="Fill-46" fill="#00339B"></path>
                        <path d="M202.061,176.1726 C201.946,173.6456 201.033,171.6466 199.325,170.1716 C197.616,168.6986 195.293,167.9616 192.36,167.9616 C190.505,167.9616 188.779,168.4306 187.18,169.3676 C186.272,169.9016 185.676,170.5536 185.152,171.3166 C185.16,171.2306 185.167,171.1506 185.175,171.0626 C185.25,170.1816 185.309,169.3776 185.354,168.6506 L181.6,168.6506 C181.564,169.5686 178.265,195.5236 178.265,195.5236 L182.134,195.5236 L183.93,181.7416 L184.759,175.4146 C185.124,174.6366 185.476,174.0426 185.752,173.7606 C186.617,172.8806 187.559,172.2306 188.58,171.8086 C189.6,171.3876 190.629,171.1766 191.668,171.1766 C193.902,171.1766 195.486,171.7226 196.421,172.8136 C197.356,173.9036 197.868,175.3886 197.953,177.2636 C198.001,178.3356 197.938,179.4646 197.761,180.6516 L195.784,195.5236 L199.67,195.5236 L201.903,179.0436 C201.956,178.5076 202,178.0106 202.038,177.5506 C202.074,177.0916 202.082,176.6316 202.061,176.1726" id="Fill-48" fill="#00339B"></path>
                        <polygon id="Fill-50" fill="#00339B" points="254.854 158.2195 254.824 158.2195 254.814 158.2195 254.793 158.2195 252.524 150.3565 249.218 150.3565 249.218 161.9575 251.478 161.9575 251.478 154.5225 253.846 161.9575 254.529 161.9575 255.186 161.9575 255.801 161.9575 258.169 154.5225 258.169 161.9575 260.429 161.9575 260.429 150.3565 257.124 150.3565"></polygon>
                        <path d="M265.8188,155.2732 L265.1278,155.2732 L265.1278,154.2482 L265.1278,152.4072 L266.8608,152.4072 L268.6198,152.4072 C269.4158,152.4072 270.0608,153.0482 270.0608,153.8392 C270.0608,154.5762 269.5018,155.1742 268.7848,155.2562 C268.7298,155.2632 268.6758,155.2732 268.6198,155.2732 L265.8188,155.2732 Z M269.8148,156.7842 C271.0988,156.3242 272.0188,155.1052 272.0188,153.6692 C272.0188,151.8392 270.5268,150.3562 268.6858,150.3562 L265.4778,150.3562 L265.1278,150.3562 L262.8668,150.3562 L262.8668,161.9582 L265.1278,161.9582 L265.1278,156.9832 L266.9718,156.9832 L270.3288,161.9582 L273.3048,161.9582 L269.8148,156.7842 Z" id="Fill-52" fill="#00339B"></path>
                    </g>
                </g>
            </g>
        </g>
    </g>
</svg>