<?xml version="1.0" encoding="UTF-8"?>
<svg width="261px" height="57px" viewBox="0 0 261 57" version="1.1" xmlns="http://www.w3.org/2000/svg" xmlns:xlink="http://www.w3.org/1999/xlink">
    <!-- Generator: Sketch 49 (51002) - http://www.bohemiancoding.com/sketch -->
    <title>Page 1</title>
    <desc>Created with Sketch.</desc>
    <defs></defs>
    <g id="Global" stroke="none" stroke-width="1" fill="none" fill-rule="evenodd">
        <g id="01-agrobionsa-home" transform="translate(-106.000000, -41.000000)">
            <g id="Nav-bar">
                <g id="Page-1" transform="translate(106.000000, 41.000000)">
                    <path d="M18.6938,18.6942 C18.6938,13.5312 22.8788,9.3472 28.0408,9.3472 C28.0408,4.1852 23.8558,0.0002 18.6938,0.0002 C13.5318,0.0002 9.3468,4.1852 9.3468,9.3472 C14.5088,9.3472 18.6938,13.5312 18.6938,18.6942" id="Fill-1" fill="#009A44"></path>
                    <path d="M18.6938,18.6942 C13.5318,18.6942 9.3468,14.5092 9.3468,9.3472 C4.1848,9.3472 0.0008,13.5312 0.0008,18.6942 C0.0008,23.8562 4.1848,28.0412 9.3468,28.0412 C9.3468,22.8792 13.5318,18.6942 18.6938,18.6942" id="Fill-3" fill="#009A44"></path>
                    <path d="M18.6938,18.6942 C23.8558,18.6942 28.0408,22.8792 28.0408,28.0412 C28.0408,22.8792 32.2258,18.6942 37.3878,18.6942 C32.2258,18.6942 28.0408,14.5092 28.0408,9.3472 C28.0408,14.5092 23.8558,18.6942 18.6938,18.6942" id="Fill-5" fill="#009A44"></path>
                    <path d="M37.3882,18.6942 C42.5502,18.6942 46.7352,22.8792 46.7352,28.0412 C51.8972,28.0412 56.0812,23.8562 56.0812,18.6942 C56.0812,13.5312 51.8972,9.3472 46.7352,9.3472 C46.7352,14.5092 42.5502,18.6942 37.3882,18.6942" id="Fill-7" fill="#009A44"></path>
                    <path d="M18.6938,37.388 C13.5318,37.388 9.3468,33.203 9.3468,28.041 C4.1848,28.041 0.0008,32.226 0.0008,37.388 C0.0008,42.55 4.1848,46.735 9.3468,46.735 C9.3468,41.573 13.5318,37.388 18.6938,37.388" id="Fill-9" fill="#009A44"></path>
                    <path d="M37.3882,37.388 C32.2262,37.388 28.0402,33.203 28.0402,28.041 C28.0402,33.203 23.8562,37.388 18.6942,37.388 C23.8562,37.388 28.0402,41.573 28.0402,46.735 C28.0402,41.573 32.2262,37.388 37.3882,37.388" id="Fill-11" fill="#009A44"></path>
                    <path d="M46.7348,28.0409 C46.7348,33.2029 42.5498,37.3879 37.3878,37.3879 C42.5498,37.3879 46.7348,41.5729 46.7348,46.7349 C51.8968,46.7349 56.0818,42.5499 56.0818,37.3879 C56.0818,32.2259 51.8968,28.0409 46.7348,28.0409" id="Fill-13" fill="#009A44"></path>
                    <path d="M37.3882,18.6942 C37.3882,13.5312 41.5732,9.3472 46.7352,9.3472 C46.7352,4.1852 42.5502,0.0002 37.3882,0.0002 C32.2262,0.0002 28.0402,4.1852 28.0402,9.3472 C33.2032,9.3472 37.3882,13.5312 37.3882,18.6942" id="Fill-15" fill="#009A44"></path>
                    <path d="M18.6938,37.388 C18.6938,32.226 22.8788,28.041 28.0408,28.041 C22.8788,28.041 18.6938,23.856 18.6938,18.694 C18.6938,23.856 14.5088,28.041 9.3468,28.041 C14.5088,28.041 18.6938,32.226 18.6938,37.388" id="Fill-17" fill="#009A44"></path>
                    <path d="M37.3882,18.6942 C37.3882,23.8562 33.2032,28.0412 28.0402,28.0412 C33.2032,28.0412 37.3882,32.2262 37.3882,37.3882 C37.3882,32.2262 41.5732,28.0412 46.7352,28.0412 C41.5732,28.0412 37.3882,23.8562 37.3882,18.6942" id="Fill-19" fill="#009A44"></path>
                    <path d="M18.6938,37.388 C18.6938,42.55 14.5088,46.735 9.3468,46.735 C9.3468,51.897 13.5318,56.082 18.6938,56.082 C23.8558,56.082 28.0408,51.897 28.0408,46.735 C22.8788,46.735 18.6938,42.55 18.6938,37.388" id="Fill-21" fill="#009A44"></path>
                    <path d="M37.3882,37.388 C37.3882,42.55 33.2032,46.735 28.0402,46.735 C28.0402,51.897 32.2262,56.082 37.3882,56.082 C42.5502,56.082 46.7352,51.897 46.7352,46.735 C41.5732,46.735 37.3882,42.55 37.3882,37.388" id="Fill-23" fill="#009A44"></path>
                    <path d="M134.3784,38.2904 C131.6564,38.2904 129.4504,35.4854 129.4504,32.0264 C129.4504,28.5664 131.6564,25.7614 134.3784,25.7614 C137.1004,25.7614 139.3064,28.5664 139.3064,32.0264 C139.3064,35.4854 137.1004,38.2904 134.3784,38.2904 M134.3784,21.1874 C128.6164,21.1874 123.9454,26.0404 123.9454,32.0264 C123.9454,38.0124 128.6164,42.8644 134.3784,42.8644 C140.1404,42.8644 144.8114,38.0124 144.8114,32.0264 C144.8114,26.0404 140.1404,21.1874 134.3784,21.1874" id="Fill-25" fill="#009A44"></path>
                    <polygon id="Fill-27" fill="#009B49" points="117.8159 28.5843 117.8589 28.4453 117.8079 27.3783"></polygon>
                    <path d="M118.4018,42.0614 L118.4018,29.3344 C118.4018,27.7014 120.1978,25.9804 121.6988,25.9804 C122.9778,25.9804 124.2578,26.9074 124.2578,26.9074 L126.0228,22.4934 C126.0228,22.4934 124.5228,21.4444 122.6258,21.4444 C120.3748,21.4444 118.8318,23.1244 117.7928,24.7004 L117.7708,21.7874 L113.0048,21.7874 L113.0048,42.0614 L118.2128,42.0614 L118.4018,42.0614 Z" id="Fill-29" fill="#009A44"></path>
                    <path d="M75.4624,31.0848 L79.1994,20.9048 L79.3474,20.9048 L79.4944,20.9048 L83.2314,31.0848 L75.4624,31.0848 Z M92.9694,42.0618 L92.6594,41.5308 L82.2004,14.0208 L79.3474,14.0208 L76.4934,14.0208 L65.4894,42.0618 L71.4334,42.0618 L73.7564,35.7328 L84.9384,35.7328 L87.2614,42.0618 L92.9694,42.0618 Z" id="Fill-31" fill="#009A44"></path>
                    <path d="M101.8432,37.8875 C99.3262,37.8875 97.2872,35.1735 97.2872,31.8245 C97.2872,28.4765 99.3262,25.7615 101.8432,25.7615 C104.3592,25.7615 106.3982,28.4765 106.3982,31.8245 C106.3982,35.1735 104.3592,37.8875 101.8432,37.8875 M84.9382,35.7335 L87.3302,42.2495 C89.2802,47.5605 94.3362,51.0905 99.9932,51.0905 L101.0892,51.0905 C107.0312,51.0905 111.6212,46.4435 111.6212,40.4715 L111.6212,21.7875 L106.3982,21.7875 L106.3982,24.1785 C104.8662,22.4815 102.8212,21.4445 100.5722,21.4445 C95.8252,21.4445 91.9782,26.0595 91.9782,31.7525 C91.9782,37.4465 95.4602,42.0615 100.2062,42.0615 C102.5472,42.0615 104.7582,40.9365 106.3982,39.1155 L106.3982,40.0275 C106.3982,43.2455 103.7892,45.8535 100.5722,45.8535 C100.5722,45.8535 95.2192,46.4125 92.9692,42.0615" id="Fill-33" fill="#009A44"></path>
                    <path d="M223.186,28.2826 C223.186,27.2266 224.451,25.4126 226.907,25.4126 C228.452,25.4126 229.747,26.3986 230.679,27.7456 L232.754,26.2416 C232.779,26.1516 231.056,22.9646 226.938,22.9646 C223.068,22.9646 220.288,25.7506 220.288,28.5166 C220.288,32.2276 223.265,33.0016 225.716,34.2866 C227.212,35.0706 228.905,35.7156 228.905,37.7256 C228.905,40.0506 226.677,41.5096 224.366,41.5096 C222.646,41.5096 221.055,40.3286 219.657,38.5836 C218.848,39.1296 218.246,39.4926 217.437,40.0386 C219.171,42.5406 221.42,44.1826 224.893,44.1826 C225.528,44.1826 231.848,43.3446 231.848,37.3216 C231.848,34.4106 229.311,32.9866 227.246,31.9326 C225.12,30.8466 223.186,30.3156 223.186,28.2826" id="Fill-35" fill="#001489"></path>
                    <path d="M193.8589,31.8807 C193.8179,30.9597 193.6349,30.1037 193.3139,29.3117 C192.9909,28.5207 192.5379,27.8367 191.9529,27.2607 C191.3689,26.6847 190.6689,26.2307 189.8509,25.8997 C189.0349,25.5687 188.1249,25.4027 187.1229,25.4027 C185.8629,25.4027 184.7149,25.6697 183.6799,26.2017 C182.6449,26.7347 181.7609,27.4547 181.0289,28.3617 C180.2969,29.2687 179.7359,30.3187 179.3469,31.5137 C178.9579,32.7097 178.7939,33.9687 178.8529,35.2927 C178.8949,36.2137 179.0769,37.0707 179.3989,37.8627 C179.7209,38.6537 180.1729,39.3377 180.7589,39.9137 C181.3429,40.4897 182.0369,40.9427 182.8389,41.2737 C183.6419,41.6047 184.5439,41.7707 185.5459,41.7707 C186.8349,41.7707 188.0049,41.5047 189.0529,40.9717 C190.1029,40.4397 190.9939,39.7267 191.7269,38.8347 C192.4589,37.9417 193.0129,36.8977 193.3879,35.7027 C193.7629,34.5077 193.9209,33.2347 193.8589,31.8807 M185.4589,44.1827 C184.1089,44.1827 182.8499,43.9667 181.6819,43.5367 C180.5139,43.1057 179.5039,42.5097 178.6509,41.7487 C177.7979,40.9887 177.1169,40.0687 176.6089,38.9917 C176.0999,37.9157 175.8169,36.7317 175.7579,35.4387 C175.6809,33.7447 175.9029,32.1437 176.4229,30.6357 C176.9429,29.1287 177.7099,27.8087 178.7199,26.6737 C179.7299,25.5397 180.9539,24.6427 182.3879,23.9817 C183.8229,23.3217 185.4159,22.9907 187.1679,22.9907 C188.5459,22.9907 189.8109,23.1997 190.9639,23.6157 C192.1179,24.0327 193.1209,24.6277 193.9739,25.4027 C194.8289,26.1787 195.5079,27.0977 196.0159,28.1597 C196.5239,29.2217 196.8069,30.3997 196.8659,31.6917 C196.9439,33.4147 196.7229,35.0377 196.2039,36.5587 C195.6839,38.0817 194.9189,39.4017 193.9079,40.5217 C192.8949,41.6407 191.6719,42.5317 190.2379,43.1917 C188.8029,43.8517 187.2109,44.1827 185.4589,44.1827" id="Fill-37" fill="#001489"></path>
                    <path d="M176.0971,18.8788 C176.1231,19.4538 175.9511,19.9418 175.5821,20.3428 C175.2131,20.7458 174.7411,20.9458 174.1671,20.9458 C173.6211,20.9458 173.1471,20.7738 172.7431,20.4288 C172.3401,20.0848 172.1251,19.6108 172.0981,19.0078 C172.0711,18.4048 172.2551,17.9028 172.6541,17.5008 C173.0511,17.0988 173.5241,16.8978 174.0701,16.8978 C174.6151,16.8978 175.0821,17.0768 175.4721,17.4358 C175.8621,17.7948 176.0701,18.2758 176.0971,18.8788 Z M172.2981,43.7288 L169.4121,43.7288 L172.0731,23.5708 L174.9581,23.5708 L172.2981,43.7288 Z" id="Fill-39" fill="#001489"></path>
                    <path d="M165.2602,31.8807 C165.2192,30.9877 165.0442,30.1467 164.7362,29.3547 C164.4272,28.5637 163.9872,27.8717 163.4142,27.2817 C162.8422,26.6917 162.1602,26.2307 161.3702,25.8997 C160.5792,25.5687 159.6682,25.4027 158.6342,25.4027 C157.3702,25.4027 156.2052,25.6617 155.1372,26.1807 C154.0702,26.6987 153.1552,27.4117 152.3922,28.3187 C151.6292,29.2257 151.0442,30.2767 150.6402,31.4707 C150.2352,32.6667 150.0622,33.9247 150.1222,35.2497 C150.1652,36.1997 150.3562,37.0707 150.6932,37.8627 C151.0312,38.6537 151.4992,39.3447 152.1012,39.9347 C152.7012,40.5257 153.4052,40.9797 154.2082,41.2957 C155.0122,41.6117 155.9162,41.7707 156.9222,41.7707 C158.2422,41.7707 159.4302,41.5117 160.4842,40.9927 C161.5362,40.4747 162.4312,39.7697 163.1652,38.8777 C163.9002,37.9847 164.4482,36.9417 164.8112,35.7457 C165.1722,34.5517 165.3222,33.2627 165.2602,31.8807 Z M149.7032,40.2627 L149.2552,43.6657 L146.3692,43.6657 L149.8302,14.0207 L152.7122,14.0207 L151.4602,26.7817 L151.5472,26.7817 C151.8392,26.2647 152.2342,25.7767 152.7292,25.3167 C153.2262,24.8577 153.7882,24.4557 154.4192,24.1107 C155.0492,23.7667 155.7332,23.4937 156.4712,23.2927 C157.2082,23.0917 157.9792,22.9907 158.7832,22.9907 C160.1612,22.9907 161.4122,23.1997 162.5372,23.6157 C163.6612,24.0327 164.6432,24.6277 165.4832,25.4027 C166.3222,26.1787 166.9812,27.0977 167.4602,28.1597 C167.9392,29.2217 168.2072,30.3997 168.2662,31.6917 C168.3442,33.4147 168.1162,35.0377 167.5822,36.5587 C167.0492,38.0817 166.2822,39.4017 165.2862,40.5217 C164.2882,41.6407 163.0792,42.5317 161.6592,43.1917 C160.2392,43.8517 158.6822,44.1827 156.9892,44.1827 C156.2702,44.1827 155.5562,44.0967 154.8452,43.9237 C154.1332,43.7517 153.4542,43.5007 152.8082,43.1707 C152.1602,42.8407 151.5742,42.4317 151.0502,41.9427 C150.5262,41.4547 150.1062,40.8947 149.7892,40.2627 L149.7032,40.2627 Z" id="Fill-41" fill="#001489"></path>
                    <path d="M246.8383,38.4559 C245.6423,40.3759 243.6193,41.6279 241.3653,41.8249 C240.2073,41.9259 238.9033,41.8479 237.8653,41.2779 C236.9103,40.7529 236.4093,39.8189 236.3333,38.7519 C236.2603,37.7269 236.5473,36.7459 237.3033,36.0289 C238.0923,35.2789 239.1013,34.8069 240.1293,34.4869 C242.4943,33.7509 245.0533,33.6309 247.5143,33.6309 L248.2023,33.6309 C247.9753,35.3249 247.7653,36.9659 246.8383,38.4559 M246.6453,40.5219 C246.5553,41.3219 246.5153,42.7759 246.5163,43.6569 C246.7303,43.6509 246.9363,43.6419 246.9803,43.6419 L249.5173,43.6419 C249.5173,39.4199 251.3973,32.0869 251.3973,29.1009 C251.3973,24.4079 247.4843,23.1809 245.0933,23.1809 C236.6603,23.1809 235.4843,29.1149 235.4843,29.1149 L238.6913,29.3209 C238.6913,29.3209 239.4553,25.6029 244.6313,25.6029 C249.6933,25.6029 248.4293,29.6439 248.1933,31.4349 C245.1913,31.4349 242.3753,31.5569 239.4613,32.3379 C237.3983,32.8909 235.1203,33.8699 233.9983,35.8089 C232.9023,37.7029 233.0853,40.4009 234.4933,42.0759 C235.8463,43.6849 237.9223,44.1829 239.9553,44.1829 C243.3393,44.1829 246.7833,41.7489 247.2223,41.3249" id="Fill-43" fill="#001489"></path>
                    <path d="M216.1997,29.2137 C216.1137,27.3177 215.4327,25.8187 214.1587,24.7127 C212.8857,23.6077 211.1527,23.0547 208.9647,23.0547 C207.5817,23.0547 206.2937,23.4067 205.1007,24.1097 C204.4237,24.5097 203.9787,24.9987 203.5887,25.5707 C203.5947,25.5067 203.5997,25.4467 203.6057,25.3807 C203.6617,24.7197 203.7057,24.1167 203.7387,23.5707 L200.9387,23.5707 C200.9117,24.2597 198.4517,43.7287 198.4517,43.7287 L201.3377,43.7287 L202.6767,33.3917 L203.2957,28.6457 C203.5667,28.0617 203.8297,27.6157 204.0357,27.4047 C204.6797,26.7447 205.3847,26.2567 206.1447,25.9407 C206.9057,25.6247 207.6747,25.4667 208.4487,25.4667 C210.1137,25.4667 211.2957,25.8757 211.9937,26.6937 C212.6907,27.5127 213.0717,28.6257 213.1367,30.0317 C213.1727,30.8367 213.1247,31.6837 212.9927,32.5727 L211.5177,43.7287 L214.4167,43.7287 L216.0827,31.3677 C216.1217,30.9647 216.1547,30.5917 216.1817,30.2477 C216.2097,29.9027 216.2157,29.5587 216.1997,29.2137" id="Fill-45" fill="#001489"></path>
                    <polygon id="Fill-47" fill="#001489" points="253.561 17.0912 253.549 17.0912 253.545 17.0912 253.538 17.0912 252.656 14.0202 251.373 14.0202 251.373 18.5512 252.25 18.5512 252.25 15.6472 253.169 18.5512 253.435 18.5512 253.69 18.5512 253.929 18.5512 254.848 15.6472 254.848 18.5512 255.726 18.5512 255.726 14.0202 254.443 14.0202"></polygon>
                    <path d="M257.8188,15.9408 L257.5498,15.9408 L257.5498,15.5408 L257.5498,14.8208 L258.2228,14.8208 L258.9058,14.8208 C259.2148,14.8208 259.4648,15.0718 259.4648,15.3808 C259.4648,15.6688 259.2488,15.9018 258.9698,15.9348 C258.9488,15.9368 258.9278,15.9408 258.9058,15.9408 L257.8188,15.9408 Z M259.3698,16.5308 C259.8688,16.3508 260.2258,15.8748 260.2258,15.3148 C260.2258,14.5998 259.6458,14.0208 258.9318,14.0208 L257.6858,14.0208 L257.5498,14.0208 L256.6728,14.0208 L256.6728,18.5508 L257.5498,18.5508 L257.5498,16.6078 L258.2658,16.6078 L259.5698,18.5508 L260.7248,18.5508 L259.3698,16.5308 Z" id="Fill-49" fill="#001489"></path>
                </g>
            </g>
        </g>
    </g>
</svg>